{
  "data": {
    "feedackMarker": {
      "userId": 001,
      "markerUrl": "/v1/markers/001",
    },
    "feedbackSubmitted": false,
    "feedbackComments": "Missing CV!",
    "feedbackSubmittedDate": "",
    "feedbackWorkUrl": "/v1/portfolios/21100234"
  }
}