{
  "data": {
    "entryName": "Engineers Without Borders",
    "entryStartDate": "2013-01-02",
    "entryEndDate": "2013-02-20",
    "entryDescription": "Volunteering for EWB",
    "entryType": "Other",
    "entryHoursAccrued": 25,
    "entrySupervisorName": "John T",
    "entrySupervisorPosition": "Manager",
  }
}
