{
  "data": {
    "competencyNumber": "3.4",
    "competencyName": "Professional use and management of information",
    "competencyDescription": "Professional use and management of information."
  }
}
