{
  "data": {
    "competencyNumber": "1.2",
    "competencyName": "Conceptual understanding",
    "competencyDescription": "Conceptual understanding of the, mathematics, numerical analysis, statistics, and computer and information sciences which underpin the engineering discipline."
  }
}
