{
  "data": {
    "competencyNumber": "2.1",
    "competencyName": "Engineering Methods",
    "competencyDescription": "Application of established engineering methods to complex engineering problem solving."
  }
}
