{
  "data": {
    "competencyNumber": "3.2",
    "competencyName": "Effective communication",
    "competencyDescription": "Effective oral and written communication in professional and lay domains."
  }
}
