{
  "data": {
    "competencyNumber": "3.5",
    "competencyName": "Comprehensive, theory based understanding",
    "competencyDescription": "Orderly management of self, and professional conduct."
  }
}
