{
  "data": {
    "competencyNumber": "2.4",
    "competencyName": "Management of engineering projects",
    "competencyDescription": "Application of systematic approaches to the conduct and management of engineering projects."
  }
}
