{
  "data": {
    "userId": "002",
    "firstName": "Cora",
    "lastName": "H",
    "userEmail": "Cora.H@uwa.edu.au",
    "students": [
      {
        "userId": "534",
        "studentUrl": "/v1/portfolios/534"
      }
    ]
  }
}